{
  "version": 0,
  "totalAmount": "10000000000000000",
  "totalFee": "0",
  "reward": "0",
  "payloadHash": "08e87c7b13b9d9505944b0cfc57644330098bdcf04af7fe7bf2864c2d0feeba5",
  "timestamp": 0,
  "numberOfTransactions": 52,
  "payloadLength": 11392,
  "previousBlock": null,
  "generatorPublicKey": "026a8b63d582459977854d3099fece5c387eafd04e42a1ba71e89c7bbd472e1592",
  "transactions": [
    {
      "id": "001f9fe3174dc93fa77ac6638b7a625e54112803dbccfcb410ec8f98e90186f0",
      "timestamp": 0,
      "version": 1,
      "type": 0,
      "fee": "0",
      "amount": "10000000000000000",
      "recipientId": "BPzqhxBUsXmPnzxdXRsrapmXvPYVwRakbx",
      "senderPublicKey": "023690f02e7931d84a09d220dc2f2d753f6c7b33adcc8b4a54f832d0f564a9408f",
      "expiration": 0,
      "network": 25,
      "signature": "3045022100c0f71978e7c7b7f04bdf7a50f5b0feb4542b92b2a79ff97396fdc339cd212bfb0220728d1fdd65740e2faf2f0bed95ef2b62240c3f3fe3a9c89b43d6f59dfeffb13b",
      "senderId": "BBESL6QvKgN6H7SigUbNp8hUXKAHvhW7nv"
    },
    {
      "id": "faaf50d17b2670f14c769218254120a579e3aa6321ba176d5f5f3a7822052920",
      "timestamp": 0,
      "version": 1,
      "type": 2,
      "fee": "0",
      "amount": "0",
      "senderPublicKey": "03e33ae9e0becb9df919dafe750d889d33b24f92501e256ee77fd5f65d90d9b151",
      "asset": {
        "delegate": {
          "username": "genesis_1"
        }
      },
      "signature": "3045022100f7349495fc57d0ef77329e312abe1d8738e8a044bd215fed4a44bb23e9235b690220110db6a7efca4b65fe1aea73f9faa90c9fa8ab20cbdaa7b8ee1075732b421106",
      "senderId": "BSXornmTTtBkYKCvePX5dQ5TRRLJg1N626"
    },
    {
      "id": "632a85fc94021f52be9586205fd426fca179d4d5d2783a234330065aa51acc52",
      "timestamp": 0,
      "version": 1,
      "type": 2,
      "fee": "0",
      "amount": "0",
      "senderPublicKey": "03b8bbadb0a546b2505e02858783176222520b9220bbfd98ff264514571d9112f4",
      "asset": {
        "delegate": {
          "username": "genesis_2"
        }
      },
      "signature": "30450221009f6796f254835514ba2f3ca6f21754d9daac6428e0fafd70930ddc8e2fc7cc99022009b56e9f45573d232da25c06067e965e72b0c8d53ae1f7b9bd999f139906881c",
      "senderId": "BDnTKj9yadfQjQ3Bhu8e8bf649HbfUpZbp"
    },
    {
      "id": "a7796f88bf759aa4bf6f267ce016ce0d898cf8fe531dc40fbc98079060809769",
      "timestamp": 0,
      "version": 1,
      "type": 2,
      "fee": "0",
      "amount": "0",
      "senderPublicKey": "022efa61e43842fb361ee31da197a529c5bac1b33213133c331e945de047f5262f",
      "asset": {
        "delegate": {
          "username": "genesis_3"
        }
      },
      "signature": "304402203a163b317de3ab15508dc2525912dac7c690bd9e688f6d20607ef93138aabfff02202ee41c68110d66e45f8c69d61cdf336efb55437963aa6086a7287d91669143c6",
      "senderId": "BSgF69HXfBZ5mGKP3iiCnBi6GhoakVwRF4"
    },
    {
      "id": "6478418de097a1a3bf80ee4976ca2f5d7e836621b51ca7ffaa179aaea20ea90b",
      "timestamp": 0,
      "version": 1,
      "type": 2,
      "fee": "0",
      "amount": "0",
      "senderPublicKey": "02f750648593bd662c651dc784ee261d7c3ecd6daf8f7139aee9a6c96b62456933",
      "asset": {
        "delegate": {
          "username": "genesis_4"
        }
      },
      "signature": "3045022100c1588bf5a0a902bb30b21ddaf0d58eca5aef3daaf698b611fbc121e384c88c30022030f41a1a6b512f01c0caaffae77b6bf97d4f1791f8453ff079576c123ed0429a",
      "senderId": "BJi3ZEYGxoahvJ31V7kie3viZHkiVr4eu4"
    },
    {
      "id": "aef37b53da9bc23d82afa28f4b29726b30717b1eb054256fa58cd1db980841bf",
      "timestamp": 0,
      "version": 1,
      "type": 2,
      "fee": "0",
      "amount": "0",
      "senderPublicKey": "0325a1769463102c471aaafa3893b67ac9abf8ff21038982cda09bf517cc15129c",
      "asset": {
        "delegate": {
          "username": "genesis_5"
        }
      },
      "signature": "30450221008483892c872c271ef51a6c7100111b08a78d810be7dda72bbf9fae8c8bfb782e022035e91e50db4ee9775279e563d45b2b814e48d068df527f7d83b541aa63f1aa84",
      "senderId": "BFcJnum3CFZ5QuWbLuW6vDaPXzBgNcgAZW"
    },
    {
      "id": "60fc8e7a79741a6de939442eeb0c4b2df67a0e83a66ea48d741f80e0bc3bac55",
      "timestamp": 0,
      "version": 1,
      "type": 2,
      "fee": "0",
      "amount": "0",
      "senderPublicKey": "03262c663f11142f2470c11f0eb6b7ada5bf3004c19b393191b463d3e0b3eb2775",
      "asset": {
        "delegate": {
          "username": "genesis_6"
        }
      },
      "signature": "3045022100e8b3e980cc04d87037bcce81c76103ba5cda85af1c823bbf199b91569ebb224d02207b4277acaaf53fffa70755f8eb319f26ad0ae65fa921a5c361cfa39750ae39d5",
      "senderId": "B6imybbPLuVkq9pGYw3BzPK87nyzXiLN4j"
    },
    {
      "id": "f19371f22be699a3c09d3d5697cb9c1a9ca01e3d8b9e740552ae40dcf5228e3c",
      "timestamp": 0,
      "version": 1,
      "type": 2,
      "fee": "0",
      "amount": "0",
      "senderPublicKey": "0222d6a2a2a2819d26c7b8b395b567842cfcd912a6f1ee964b50e95fe6a459eca2",
      "asset": {
        "delegate": {
          "username": "genesis_7"
        }
      },
      "signature": "304402200b2f590a6317058c9930edfc2f8eb9cfa3a4001d02e96debe6b953ee546df8d602204a69fb0dd5a403d204b5e1664392e16a732bf217aec5a78b542976e252c12245",
      "senderId": "BMZ9FhRqH3MXCoQUghz7esMAKK7CuiijHp"
    },
    {
      "id": "c771a9aa98178a85afd2b73d351820f9b8a16be798ad25900aa0c14c3e45b07c",
      "timestamp": 0,
      "version": 1,
      "type": 2,
      "fee": "0",
      "amount": "0",
      "senderPublicKey": "02196dcbda1601f03cec053a8227fb83fd5ae31760b6872e772b9561b08d834fbd",
      "asset": {
        "delegate": {
          "username": "genesis_8"
        }
      },
      "signature": "3044022001529a766e8d43f72be0e7452dd453a6a9011be09c24577de98a026418c9f825022002b4cb1f86d1bddd3db079c77a45f38a2eb07fef0e5f401d67dca40913c1afa0",
      "senderId": "B6GKVpRa3KyJuZtwbR98u3rXqrpHGChJDs"
    },
    {
      "id": "76bc759eecf279f9aa70f97ac62cfb842989b19f8573d93ec2a11e1a15ced8be",
      "timestamp": 0,
      "version": 1,
      "type": 2,
      "fee": "0",
      "amount": "0",
      "senderPublicKey": "03145b7d748312fd9a7eba835eb2a5208e4791c6835ee15165bac204cbd9c1592f",
      "asset": {
        "delegate": {
          "username": "genesis_9"
        }
      },
      "signature": "3045022100e92f9f9a519e7c48f57af297d1ed8e38c9967fb46b3108ff8ecb6d3015a424ef022015d7f67246d5fa74d3a1048cd7557e26f4d5d7c19312590b791b6ad6d12f7ce7",
      "senderId": "BKLMxnJ8SqBz8P3jweEojx9B9VpDGGYvy7"
    },
    {
      "id": "42b7c477e235f9a8643986c387ed808de9d7df06425eb3438ddc2c9a155f66a8",
      "timestamp": 0,
      "version": 1,
      "type": 2,
      "fee": "0",
      "amount": "0",
      "senderPublicKey": "0238c613610ca0b902f7e0bc88a91ce55b57b46c8c68a99afab5f165a40c48904f",
      "asset": {
        "delegate": {
          "username": "genesis_10"
        }
      },
      "signature": "3045022100b094d900309dd7dd44d01c07621bfc0ff42b6d7ef391eac2eff8049826d40d83022074df2bfa4327dd13f0bb9566b4875c9f6478c54990f605d636c310d8cd7617be",
      "senderId": "BCNPSieDhfkHHtnSNqo9TVVCNaNMxxNy4J"
    },
    {
      "id": "7bbf17bff0c6d06f93ac1334715f245f1b83193fb2a1135d7e6f1bddf63d5203",
      "timestamp": 0,
      "version": 1,
      "type": 2,
      "fee": "0",
      "amount": "0",
      "senderPublicKey": "0317b5e2cf20a58ff43c75f09720a27d5b13daaf62efecc10563427f3978120b74",
      "asset": {
        "delegate": {
          "username": "genesis_11"
        }
      },
      "signature": "304402202511362d5203f4b41640a6a5449936bb381f7b2aeb32da4bbccdd851884a4c82022053f61dfb821590bfb01a6813d3ad44f0181f9f1ebabbf3172171545769af0750",
      "senderId": "BHHSCnEYchYW1GJb9UPsDXdQetRJ6vRJVb"
    },
    {
      "id": "d4670b5361a30b0498837b6a9b5b1a2639a066dfc49a10c2322f92caf765a35c",
      "timestamp": 0,
      "version": 1,
      "type": 2,
      "fee": "0",
      "amount": "0",
      "senderPublicKey": "0377cc2f2b42135d82385a9ee536ea25ebb334b3f9552d9365799f673865038f08",
      "asset": {
        "delegate": {
          "username": "genesis_12"
        }
      },
      "signature": "3045022100cd521138075a9db241e3feb416c1552b38f273951c7f58475de0791b5b31e83b0220424ae40e725ca81013549512224282c1869aa833e7710b55ead4af2f4a30ddf8",
      "senderId": "B5W99KHYk3iEcVXHQXZJ3ejEeSuuw17YRR"
    },
    {
      "id": "31f9a717a9ef61498f81ef199fe553698035e5cadbc86793493f3b00779638da",
      "timestamp": 0,
      "version": 1,
      "type": 2,
      "fee": "0",
      "amount": "0",
      "senderPublicKey": "02ecf1b167b7ea78720521c93f82c028a6a715a72eed9b95312ec4cd171a4799da",
      "asset": {
        "delegate": {
          "username": "genesis_13"
        }
      },
      "signature": "3045022100f561c2c6fa97aeffc26e1b7c33bc7975d4c21cbfa540303daed2b5f2425cfd04022051170388f897e502ae8debcd914e84bb4513d75a71e2deaed24615b6e0be7499",
      "senderId": "B7u3ceBZfASE6Uc1thJRzbTXMjesNM3Cpy"
    },
    {
      "id": "e93712f6ed4648bbdd9001b85d0bdca022258dc8e4504c5a13fbf4a101f3559d",
      "timestamp": 0,
      "version": 1,
      "type": 2,
      "fee": "0",
      "amount": "0",
      "senderPublicKey": "02f1fd796164dd2fd8342d2d7ff8d2814a3409fc44fea15255463d1695b10122ba",
      "asset": {
        "delegate": {
          "username": "genesis_14"
        }
      },
      "signature": "3045022100ef5c75b1b539cd5e52b588e14022e1a5fda169e8cd8a29ce24c4cdbe1747005002205ce04bfb8dcbe25cb5d1dc160a33750ba71842c687c7692a0a0f809680dbd6cd",
      "senderId": "B7w4N64c5KmEPjkenreuCahVHvWvxz5fUd"
    },
    {
      "id": "ea0c5ff847e2d8cd375199f43cfcea5929fe09d7389654c665acd71a9d4ea73b",
      "timestamp": 0,
      "version": 1,
      "type": 2,
      "fee": "0",
      "amount": "0",
      "senderPublicKey": "03e9574927e15cccae589e75fc2ce9b52d1243c58cbed856b1b4df78c7bb95b6ad",
      "asset": {
        "delegate": {
          "username": "genesis_15"
        }
      },
      "signature": "3045022100cc794aa2d2f18ac2eb0e07c6e3a744f0fbe3718866817d0e0fb6ae3e7d498c1102202853ce79d35ac4fb8e495a75dcaa30a3e59df24bb6f379811687ced0697f9b3a",
      "senderId": "BLkV9fSJZzL3iWojmDBjvzXUmcgjjMFZ3K"
    },
    {
      "id": "7cb8a53c378ecb2e23a704f5dbf90ee6b366face2a9b75250ed852e724b64a77",
      "timestamp": 0,
      "version": 1,
      "type": 2,
      "fee": "0",
      "amount": "0",
      "senderPublicKey": "02c0b4a7d53c0e5a5758f546c451c9c808a23ba8a526841a18d013a6621d5d01ca",
      "asset": {
        "delegate": {
          "username": "genesis_16"
        }
      },
      "signature": "304402203f0826cee310b565a7925e91b8df8ba1da6208b1e5c37b15207a8e6635df1893022032efdf7d7fa8169529aab4814d9b706a924cfc964e32e13fdca63c32e8d48969",
      "senderId": "BBLQCo9K86KsSu35XXb5qX2kpQdUPmy9oe"
    },
    {
      "id": "850313766fd5e2c315794004dd071c0102672fa41d60c6a86d5764320b537f66",
      "timestamp": 0,
      "version": 1,
      "type": 2,
      "fee": "0",
      "amount": "0",
      "senderPublicKey": "02fe299431338a4758378f645ae65892a4acc9407da3f0778211097fe2a6023485",
      "asset": {
        "delegate": {
          "username": "genesis_17"
        }
      },
      "signature": "3045022100bbde329ae51a83778b5432119928fb5100ca89ba191f6287f33c5dedfba81f0b02207a5a81ce862c553e009ffb1dad88950324fe0846b0d6a79dec4e85de54bfbadd",
      "senderId": "BSLPt8CU73ZfTWpAL4m1Xc3HZKzWUVbMwA"
    },
    {
      "id": "7f55d742420f7e95215f4d3a74f12db4e524b62bd6e2f21409d8e68f6b142b43",
      "timestamp": 0,
      "version": 1,
      "type": 2,
      "fee": "0",
      "amount": "0",
      "senderPublicKey": "036f48e702c4b99551d89318ef9016681d76f0881a9760665c30ccc2c365e71229",
      "asset": {
        "delegate": {
          "username": "genesis_18"
        }
      },
      "signature": "3045022100b02d6bcd9af30330fe0b2ca894c98d114aecc1427d118f04e885c5b79508b81c02200918ee2fdaad4de6a9630e1d9ad9f89a1f16a934f4a6e68c059ee43978447ce3",
      "senderId": "BSm978M8pzxMQ9Y7JdYv4iLjnQqKDQGQpf"
    },
    {
      "id": "d6f0bc22bd1487b269aff36e4c2a9bc9d1818ff735fcbd5e15bd454cb5ff47f6",
      "timestamp": 0,
      "version": 1,
      "type": 2,
      "fee": "0",
      "amount": "0",
      "senderPublicKey": "025decfcb88c8431181ef53b7f695e489fa34cd140665bf02deafc9c8cd460f0ad",
      "asset": {
        "delegate": {
          "username": "genesis_19"
        }
      },
      "signature": "304402203f3d60b0eaa2aa870bd6c5a8f7ebe354c1324babaefa1c9712692c8f4ec3cb0202205cfc5fc779258b26e39f2489dbf28167edbcccfb0b9fb5a640fb0cf28f89470f",
      "senderId": "BSEh5YE63q2yjVkPzqLFsNGQ5RiGk3o15a"
    },
    {
      "id": "14347c2ae2d5659ed8c0e4ca810dbf54db01ff83e78c87dd0a789be9ca60ef12",
      "timestamp": 0,
      "version": 1,
      "type": 2,
      "fee": "0",
      "amount": "0",
      "senderPublicKey": "034f3c727d4bb9827f216475406943aa3f3cedd5a691d43ad7ea1b32f6c57dc8a7",
      "asset": {
        "delegate": {
          "username": "genesis_20"
        }
      },
      "signature": "3044022051360a6391873459957dbe3a2a68ccfec1f2dec345839c9e942d4e48765b82a702201f36f52602d2ebb60b636acd9c4709084fa55891b96b3851b3ee61154f0b40dc",
      "senderId": "BRPLCEYw1aBw4oqG8WJdJpuGPUTnUfQbQp"
    },
    {
      "id": "5b566fbb712d20d5da2cb5d128be35a2d310226bfe5a024741916b49972ab052",
      "timestamp": 0,
      "version": 1,
      "type": 2,
      "fee": "0",
      "amount": "0",
      "senderPublicKey": "0316820f968a1034a22d7e9540e24a46b918f4798698417080ebeb0f1fcc3e78b1",
      "asset": {
        "delegate": {
          "username": "genesis_21"
        }
      },
      "signature": "3045022100a6e9f921d9754feadc2d01644a78e3484dc4ed0b8afdf1b87ade27412bf50e4402206469b2dab4f0cfb20a7a78c4dc8c757d3b70d49e79ef63268535255d642a2011",
      "senderId": "BJQpDcBEY385TsjJFo5bzRLbXcSKJ2TRLk"
    },
    {
      "id": "b22d97909fae9be48e839ba1691000c54adac009bc0a87a2abc5c64ee643b427",
      "timestamp": 0,
      "version": 1,
      "type": 2,
      "fee": "0",
      "amount": "0",
      "senderPublicKey": "03145ae22dc5611e32c05d8f92a10e01de6235a9fa59155258f9a73dccb3b9d9be",
      "asset": {
        "delegate": {
          "username": "genesis_22"
        }
      },
      "signature": "3044022073d5b7af7ab43bad50f9c5f8ad9f30846bb393543b016186d4bcdc101468c7a00220538e8e3dd2e300414c814b1ec8026eefcb6784146db8a427146208266e504e78",
      "senderId": "BHALrNU9rEjDuGU1HzWRKfiaHpx9Q3px7R"
    },
    {
      "id": "40a27359c817e491aba10dbb96829611e5bc62760f5fb52fed0fb75b3fb98e31",
      "timestamp": 0,
      "version": 1,
      "type": 2,
      "fee": "0",
      "amount": "0",
      "senderPublicKey": "0201807a89f1be736e04eb5274afc06e8400e1031d8b41530c2c0ac8b2170a6cc9",
      "asset": {
        "delegate": {
          "username": "genesis_23"
        }
      },
      "signature": "304402204d526b98d112eeee52009196c01b25dbf87d538a77c0b2b75eb374e628b192fa02201149266f9393db0b9bfd49b83a08ca18437c251f7bf9629343b15209073f782a",
      "senderId": "BScqxdRfyfc4MQ5gsgq6gn7beXtpmaMtUk"
    },
    {
      "id": "310762dfbfda49ad68af2d6e897b82b68f0ce8e6bd682c296f4e015a129da8ff",
      "timestamp": 0,
      "version": 1,
      "type": 2,
      "fee": "0",
      "amount": "0",
      "senderPublicKey": "02f0ac61f0d051b23f373dfbda9fa5f913426f3ddeeccec3847cbd7e1838b23884",
      "asset": {
        "delegate": {
          "username": "genesis_24"
        }
      },
      "signature": "304402206c9da6d22c80798d989bfa442f2df6606e1f8ea2eb0db909228447194494e71302203c343ccf26a30430731251c61cf2f94695cd2eda8da5449489052d1b94780c49",
      "senderId": "BPCB396nMrkTJxeNuJtGAwpEegxUZnxsRW"
    },
    {
      "id": "4022c675a301dc06148aa5b03b1becb753fdbeea2c0b1e2c2023b5d04500d246",
      "timestamp": 0,
      "version": 1,
      "type": 2,
      "fee": "0",
      "amount": "0",
      "senderPublicKey": "030208d0472f9e566f65a2cf4ba5ebf0934c2de099e87938ab6d240bfc345acc78",
      "asset": {
        "delegate": {
          "username": "genesis_25"
        }
      },
      "signature": "304402206421284b690289847eb0d1035d97cffa6cc512fe9a9b67afae607c7494a9a31a022014ca92fd46b6570b009acc3726111cc2cee05d40b8ab5cb84d795c33be359bce",
      "senderId": "BQon2noxJaqZLG9SSTNhPDmMUFJ42cv8sJ"
    },
    {
      "id": "471e9360b27a409dd1a261e4c465ee40c139dcf3ed9067b13e0b262d4b3a4225",
      "timestamp": 0,
      "version": 1,
      "type": 2,
      "fee": "0",
      "amount": "0",
      "senderPublicKey": "02aea0aa2beec1c300af0675f84ecda674c8b5e9375f1854303d62a29e3b90df70",
      "asset": {
        "delegate": {
          "username": "genesis_26"
        }
      },
      "signature": "30440220700ba393a9febb955c79311ac6dd2de1a8a6265b1014514231280d840f88323302206c7af8d65b03883a8bb4cb836f288d30ec4e6859a771ae81edfe0f6faaae8cd7",
      "senderId": "BMayoLuxTGp6voXGad86N4cBtCByfojix6"
    },
    {
      "id": "f23f0559675aaafe69a3e0989c7788eecbbd6f71300ca62c6ecbf84112f97639",
      "timestamp": 0,
      "version": 1,
      "type": 2,
      "fee": "0",
      "amount": "0",
      "senderPublicKey": "0229d5fc65b394259b15ab7ef86b711aea4078da7232736cadfcba1ca0e4f1ddf9",
      "asset": {
        "delegate": {
          "username": "genesis_27"
        }
      },
      "signature": "3044022053ff943c9edbb8cefca4dc4c11ef3a63e7cd66ea13553fd3ebb7f4f808863555022068fb8c24dfe1798e94d0e3b4e8cb1a3d34bbe25869154403e77d6e6d9d4df300",
      "senderId": "BSicZLFgTqEJ1gi37Zjg3Mk7UkJrNqXNPk"
    },
    {
      "id": "b99414c213a1b2e474ca5e23e8b6fcd8e09e3060a2b95e8514b59eab3cea65aa",
      "timestamp": 0,
      "version": 1,
      "type": 2,
      "fee": "0",
      "amount": "0",
      "senderPublicKey": "024d49080c364201e2b7f2b603ab1da4af71c804b2eff7c23b893ad732bcd67652",
      "asset": {
        "delegate": {
          "username": "genesis_28"
        }
      },
      "signature": "304402203c08a733ff54664da0f19542e52338b5ea4360c1fecda56ac79777ccf9be1ebd02207873c73d9bb7cd10bca2aacb94c56a59c8b3bf7550d1179d99d2d4ba928863ae",
      "senderId": "BNEyvvMHYHxTymoStbohaYUjo8n4yX6tQs"
    },
    {
      "id": "a4b5b5d50df324f524b51a2943fade6436200c647cf0c61558b5b84e4e5bfd30",
      "timestamp": 0,
      "version": 1,
      "type": 2,
      "fee": "0",
      "amount": "0",
      "senderPublicKey": "038a8d428eb078e11fd7ea765f245af165e899cc5b3460b4d035e3e7dcc548c1db",
      "asset": {
        "delegate": {
          "username": "genesis_29"
        }
      },
      "signature": "304502210092176a1f6a10b7f151f0d65b0f27900068bfa0088b870236fda43117c5d243a2022033319fb0807ef9b23d1896e70186f7bd5f6a54d852349a492b377ae8cd61dd4e",
      "senderId": "B86YBPSPWiujTqroTPmw9wPRktXRe43HYY"
    },
    {
      "id": "e29089b55cbdfd5a8f6c89534280e6bba6cb696fcce7498ca14e11d183fee605",
      "timestamp": 0,
      "version": 1,
      "type": 2,
      "fee": "0",
      "amount": "0",
      "senderPublicKey": "0251c8207940e9b6b13ce88706ddd483a32cdaf80a4be496598167fda2fe8a4b71",
      "asset": {
        "delegate": {
          "username": "genesis_30"
        }
      },
      "signature": "3045022100964eed839b6e8a61fe9ee2ea64926b6232ed430c3f3a9dc64dfb36e38e9194ba022022ab6d139d38e165cda23edf14c9b6cb1790b4d06c69745be97d4df91671d262",
      "senderId": "B8rzKe6NqiGMYnn2CDP5ta5VXvjWyZyQsj"
    },
    {
      "id": "47799e0c2f58f477e08d6b88c90b50461881d6600f13692e2008146205bd00ce",
      "timestamp": 0,
      "version": 1,
      "type": 2,
      "fee": "0",
      "amount": "0",
      "senderPublicKey": "035a551efd4b5cdd65d15460712d9366d29683ba1223e313ff6ae6a72f957575ff",
      "asset": {
        "delegate": {
          "username": "genesis_31"
        }
      },
      "signature": "30440220552e96d025156ac49dea65f2363419e23e3b41cfe9d55def291fff8cde6db81602207f79d01b9f4a91e7c434c6858a511fbb66470b5506263a47078611bb2cbc4fbf",
      "senderId": "BEHaxEtCeiG4G5NRj1ukc6E5DoPnVKFRh4"
    },
    {
      "id": "75f1fdd97fd5f538269f107574dc9b6bbc0ce8d85c049700b9272a0376c3333c",
      "timestamp": 0,
      "version": 1,
      "type": 2,
      "fee": "0",
      "amount": "0",
      "senderPublicKey": "03fe87da4bd25e19a1180b13cc41040a22c8e4ef842d75636cd94759c32423cbb1",
      "asset": {
        "delegate": {
          "username": "genesis_32"
        }
      },
      "signature": "304402206912961e3805016ac820bcb7796c7c4fb82418a49b4dbf8f053d0716d382e49d022034f694b8728dd0015db0805777f92b463e5f2e74a6b936f907611a759bb93905",
      "senderId": "B4nfaGWjNPX516iVMwc8HcbKx6nTr67dXs"
    },
    {
      "id": "4f0a6a3907a266c844127b4eee455d7491264ea24dd1a25d4c20d6c3105c18a7",
      "timestamp": 0,
      "version": 1,
      "type": 2,
      "fee": "0",
      "amount": "0",
      "senderPublicKey": "03fcdba16057ab299447fe03444089080a8d904f80628b153dc009faddcd41e64e",
      "asset": {
        "delegate": {
          "username": "genesis_33"
        }
      },
      "signature": "3045022100ba73c222801efa6d6a1dce8b50814c924c28f68790bdd3167b6f4a5f60e7278a02204cfc48b6584d011b1be89e37bab3c6d89f8a413c73d2c0e70e22ecd6c393a066",
      "senderId": "BC3Ji3k2X56TGgHuig44tcGs7mMuKDgTxx"
    },
    {
      "id": "aa7f892ce4f580d6e2d43120086383b881dcf94d67dc4a78b144f745d438b5f6",
      "timestamp": 0,
      "version": 1,
      "type": 2,
      "fee": "0",
      "amount": "0",
      "senderPublicKey": "02ddd31d55d55cb5ac0d423b8c1585135d0a82a19448ffb01ea0cd3ec78f781eb3",
      "asset": {
        "delegate": {
          "username": "genesis_34"
        }
      },
      "signature": "30440220189b713359b8f5ba91823d1c463ff8f530576ae660ceca5c2c348f0f55ee52a5022076f9fec02f4880b7a579aa1b677c0e501fa8d3ad7e7f8492e4aa1895e2eaf782",
      "senderId": "BEmuRaAGLCyoWpqVVWANhCVPcnTU34fiRb"
    },
    {
      "id": "48e77f13128a6529639b06f283fd05182eba3c526c537a4d169f721840322778",
      "timestamp": 0,
      "version": 1,
      "type": 2,
      "fee": "0",
      "amount": "0",
      "senderPublicKey": "0230ae03ec14454ae8d4b48cab21117fbeb42e3a172634ab0da2caeaa8c31fc812",
      "asset": {
        "delegate": {
          "username": "genesis_35"
        }
      },
      "signature": "3045022100e22253cb21b5994d668daa20b4bf7de7c95ab6d70bb3efdff9762f9472b2eaa4022070f45c9f0ca94fe2f991dc4a7b98b430cbd09840bf2772052a2419755359f20c",
      "senderId": "BKFRLfPtrEucV26dKZv5mZNiLh4n165wZo"
    },
    {
      "id": "a530b7817bcbbcd5ceff1d32bc092281fb01760ce027df644bec59b32f9131f4",
      "timestamp": 0,
      "version": 1,
      "type": 2,
      "fee": "0",
      "amount": "0",
      "senderPublicKey": "0344f980634de019cfaad8eb9c14a10e545f5ce7340c9d2408da42ba34023c1e60",
      "asset": {
        "delegate": {
          "username": "genesis_36"
        }
      },
      "signature": "3044022003761bff4c1a8cf7698c67ef294ac2a03b0814440c5dc001eb85db3f0b5b763302207d5b146a73a0f22e34e6269890d94af6b9bcd2d63b1162c5b50a5a883882ffaf",
      "senderId": "BNDQBa19KD2zkff5kV2EY8b3FVt6z8LEFa"
    },
    {
      "id": "d9c3c743f5dde09fe0b2f3af7f2336bb7d0216ee171bf1edd72c63eb72bc488e",
      "timestamp": 0,
      "version": 1,
      "type": 2,
      "fee": "0",
      "amount": "0",
      "senderPublicKey": "0272f58392b82908045697ecec3fd934f553566a178e9a57715edd219ecbae5962",
      "asset": {
        "delegate": {
          "username": "genesis_37"
        }
      },
      "signature": "3045022100e398dba03826210da7207dfd9f0536539ea56f122001702ef675e45215e8fd5f02205ae85fef88bcdd19196d261dccb56d71d73beedcd12fdefdbea46a48016b2a1a",
      "senderId": "BNQuvPmVDVsZjwMzPhmdxq93vxQRAf1EEB"
    },
    {
      "id": "2ecefef54ad744dc1fdee6508e15684bc3dbe70e3f1c42a17c56f73eca84dfd3",
      "timestamp": 0,
      "version": 1,
      "type": 2,
      "fee": "0",
      "amount": "0",
      "senderPublicKey": "02666b7280dfa5ec28ee0b11db540c267c6e899d3dedd9abf233c2ffcae4f40ed0",
      "asset": {
        "delegate": {
          "username": "genesis_38"
        }
      },
      "signature": "304402207008abf6558c62d91377224a45586f382e232ef6e725828db173f300b160414502200d0b64ff19ef4764ddbee80140b3c82df572041dc1102ffd48f034b07eb4bb91",
      "senderId": "BJNuT6MLdZGT8pY9zMkQ5qJB6ANm5eBdiA"
    },
    {
      "id": "e40ed8a1f58d154c06facf26abed12b3703530075c8f0bd32ad1249ce7f60577",
      "timestamp": 0,
      "version": 1,
      "type": 2,
      "fee": "0",
      "amount": "0",
      "senderPublicKey": "02f2f7a14e2a0fd1cdbf9cc9437177b9ba6cf8d5fbaffac348b6c0f3f19bacdae3",
      "asset": {
        "delegate": {
          "username": "genesis_39"
        }
      },
      "signature": "3044022040b233d88dfa2033dd57fa2292e14339604b7d54c14227a16421c3af1290cbf30220520af328755a3e62f158d7ee1fbaa9c270abccd63a566e9a27d313bb0580cfef",
      "senderId": "B8k7Rx1w23r4tkzxg14yCxetTuyv7e852k"
    },
    {
      "id": "1fbc366c7dbc3fe7fb14169ef9a854bf89642be6e73036ce53a6f2f1edc04422",
      "timestamp": 0,
      "version": 1,
      "type": 2,
      "fee": "0",
      "amount": "0",
      "senderPublicKey": "02f8c341d4f127796c7912c211c3153e63dc9198406d74d29ff75aa8ec03ee5850",
      "asset": {
        "delegate": {
          "username": "genesis_40"
        }
      },
      "signature": "30440220555642b6721128f615894637aec4ac28f65caccd8c53f9e43f26d12dd46b3b6502205f243e61cde4a5327dc10bc7c4205c10709758165fa0ef941cbd6b7c870c49fb",
      "senderId": "BQzZtEzo3LJEcqjnxff6onAxy3ZpoyBKkL"
    },
    {
      "id": "a7081bdbb73b5737630b9d58480b28bcddf33b0175c61e6acd8f125c06d1762c",
      "timestamp": 0,
      "version": 1,
      "type": 2,
      "fee": "0",
      "amount": "0",
      "senderPublicKey": "02b32bead6ed7887848859e505f03cd44c96ea06ccd0f71f2c089ea060deccb10b",
      "asset": {
        "delegate": {
          "username": "genesis_41"
        }
      },
      "signature": "304402204953f4c08dc073bad834f344a6b882e641f2414900c8187a3ec3c04264660a35022005ce200fc39254b2bcc0610db03bf5e1163bcb1ae682e625807749377bc631f7",
      "senderId": "BSaHpDxRQX99Kc2zjqmFit9u8yavQyKVqE"
    },
    {
      "id": "2fa4e9c9eb6b9c2d5935343451a1ef91723393a37cdf9a1e148be12e3d035aa1",
      "timestamp": 0,
      "version": 1,
      "type": 2,
      "fee": "0",
      "amount": "0",
      "senderPublicKey": "02c5d00e2aff88f0bc0e3b1a8ca8cdaa7988d57b33fb7daf664ff546a4d5ddb1c5",
      "asset": {
        "delegate": {
          "username": "genesis_42"
        }
      },
      "signature": "30440220408b623b8444911546b55cf842569f06b39c450bd47ba9b9d2c3a0920d56a88d02205b3bda44c25a937d05a227e6c86d722d6978d20748bb9c0f9bbf6d3ce765b79e",
      "senderId": "BAdMAMdMwkmbKB8oUxU9ygkH2BZRd4eAqx"
    },
    {
      "id": "0f8dd667e5797de5eea0f40d32db65438e538e6de37710461c2b944bc9f3a27e",
      "timestamp": 0,
      "version": 1,
      "type": 2,
      "fee": "0",
      "amount": "0",
      "senderPublicKey": "03e22fa33f72250095b37480496bafeb6a144aa7faaba289e6e10864588a4032f9",
      "asset": {
        "delegate": {
          "username": "genesis_43"
        }
      },
      "signature": "3045022100df855211a412e59db470a297cb09cef0a9da5fe64863718e23bd6cb07de678a3022071049dd7d733e0e473911fb75b2fd1345b779438e2fc0ba5cdc64e0b4ef84ac5",
      "senderId": "BEsNCAShSXQMPqG51HdTsSqtEzTA5GdJeg"
    },
    {
      "id": "1685c7259f05957364826f088bdc0dd2d515560ed44574d041184e28790fbf2c",
      "timestamp": 0,
      "version": 1,
      "type": 2,
      "fee": "0",
      "amount": "0",
      "senderPublicKey": "03348a9a4b460eeb225d2289d7346b75945006bd7298ed9eb6e680c93921410e39",
      "asset": {
        "delegate": {
          "username": "genesis_44"
        }
      },
      "signature": "3044022046ba5518c11739d21de7df5bcaecd5f27591ab2bf9d68166d7780aa3667945a20220538efe955123fc42b2becf04bf53fdccb0bac8d706a3d37ec949fa13af4c58c5",
      "senderId": "BDu8eHtKprmmW17bR6fVzag5NoFQ5qTPuX"
    },
    {
      "id": "a1c6336c1a71ea1cbf64ac4bcd0d8a2b83b520c753a597a0790e294ff5efd325",
      "timestamp": 0,
      "version": 1,
      "type": 2,
      "fee": "0",
      "amount": "0",
      "senderPublicKey": "03c05b8d6565b7877cdd183593ca4331bf03de1f0eee1b599e3dcad92dc3f7aef8",
      "asset": {
        "delegate": {
          "username": "genesis_45"
        }
      },
      "signature": "304402203de673687c17e7cae94d5ca8f0f99fdd4e433c3925b21d3337269da2f16494ae02201604a68291e87c791f6c3faee33f9ac5d692cf8acf90397eaa3a9e4aa40d3566",
      "senderId": "BPxti5H1FGLvDAfAgs5kydjVMjEbEAnNW8"
    },
    {
      "id": "2ec48109c5271cbf4f692bf1cf3c9b3ec745e4324fa678358e39f4b63b69d106",
      "timestamp": 0,
      "version": 1,
      "type": 2,
      "fee": "0",
      "amount": "0",
      "senderPublicKey": "036f23eabd48c4d69f637b23232988164240a7dff72f188b56ab83de98ae35f5bd",
      "asset": {
        "delegate": {
          "username": "genesis_46"
        }
      },
      "signature": "3043021f52c71011d8c51b77bcdf9e5235de2c1b27371db3e4c7e251a666853019c54e02203bd4e3fb6fc461b29abfaedb80c23f01617f93a800b9ad60f2aedf5ddefdf61e",
      "senderId": "BF7PYMnF2hzXnFxvct5FcAhnhqXvSWQqtE"
    },
    {
      "id": "b8e5c15c3c4e5023118e0156ab3589417a36355e6dd5bcba07db6593ff9bf272",
      "timestamp": 0,
      "version": 1,
      "type": 2,
      "fee": "0",
      "amount": "0",
      "senderPublicKey": "03f77d4c5da0e1e3ea3fec86018e099ceb7aef1cff29d228a8733d4c6089e7495e",
      "asset": {
        "delegate": {
          "username": "genesis_47"
        }
      },
      "signature": "304402202703f9738e67288f8bb17eb397e2c1e779fbafba23ebebba7d34bb7a466f2e980220617a521c17e517c2a83836c5e642e1fec93290d3c04e9518bf0f7386fce15009",
      "senderId": "BDE7n4zNqtxNpbQXWSsUELqtZm6ZQ5QA7o"
    },
    {
      "id": "8a00e0dfe7526c74503716fc5486e33d7ab4e8a532944a95d6bcdadad415e262",
      "timestamp": 0,
      "version": 1,
      "type": 2,
      "fee": "0",
      "amount": "0",
      "senderPublicKey": "02b1b37e46eeb5420019698f5b807c5fd88893f34f9efd48c656747f6b6d9cb516",
      "asset": {
        "delegate": {
          "username": "genesis_48"
        }
      },
      "signature": "3045022100c3f82393fb0f599f30ab0d2f83b5d07fb2b546c262b7e972ed7a6aecca3acb8802204fade92917834095c8c8222779cfd7513d81099b95fb140693e9ad5005bc3240",
      "senderId": "BSsQWVYum2Zhz4mTuYKpg1EKufiTpeN4Jo"
    },
    {
      "id": "3b9f4824326d95e6c159b5b4fc5fb5f9bfab70341869a658394b1ebcbcbbb4a6",
      "timestamp": 0,
      "version": 1,
      "type": 2,
      "fee": "0",
      "amount": "0",
      "senderPublicKey": "029ae03b7a26d6f99f491c67fb255ebedca2fa96c84d004e21f5c8e5c3f48aa5f5",
      "asset": {
        "delegate": {
          "username": "genesis_49"
        }
      },
      "signature": "30440220532c33bdadd32fab8a25d4f0c643afec6912bd6ceeb918881dfd397916361c240220566704a1d129d51e18b4f287c7ba08fe4a36066a374d7331e2eac16b84f2cf2f",
      "senderId": "B76sW2wMovnV39yCqZZFQCjQMYyM1HDbqc"
    },
    {
      "id": "01d2980303800b4f2a1ddf6904000d631223fe0b80351d0c01506b380e1c66b1",
      "timestamp": 0,
      "version": 1,
      "type": 2,
      "fee": "0",
      "amount": "0",
      "senderPublicKey": "02bc074cde6916fae0aecf29e3f9178acc3aecae1190c7003240913b310e8345eb",
      "asset": {
        "delegate": {
          "username": "genesis_50"
        }
      },
      "signature": "3045022100d87a689e1e5c722b52dc8bf9bc6832c973964c9b5bafaec990f9e10503a1a1920220439eed6693cca846b7abd5bf4cf1cf2b4b6eb7a971db11750c0f94387268528b",
      "senderId": "BHmVjsvEtfaWwM8Lzn1Pd21JJP67fXHymp"
    },
    {
      "id": "6938890565f4d8fc8e9f427d0dfd96109e6514210c791166001c493dec9fa576",
      "timestamp": 0,
      "version": 1,
      "type": 2,
      "fee": "0",
      "amount": "0",
      "senderPublicKey": "024f45f1eb0c59a6f80647fed640fe06fa87e4cc91e63ace96e16477ddca45cd47",
      "asset": {
        "delegate": {
          "username": "genesis_51"
        }
      },
      "signature": "3045022100e77b8334ffbac79aea022fd5e01671e51526eb38b3db3f758c8cdc9d5371696a022008100b912f8920a34401dd8061e429bd75ad7cc0a0ab57c93a4b97f56876989b",
      "senderId": "BRnRjWyAvh94aH9mzycCsZrSDpmnZUULL2"
    }
  ],
  "height": 1,
  "id": "15065720319455813638",
  "blockSignature": "304402206c158f19e593ac25f030837c836c646dc8ae32829741354e22c7317e22a087db0220724c82db4538265f4d213f8a06bcc33b2a9d2767bdfa06137e05d9c573f95467"
}