{
  "name": "devnet",
  "messagePrefix": "dBIN message:\n",
  "bip32": {
    "public": 46090600,
    "private": 46089520
  },
  "pubKeyHash": 30,
  "nethash": "ef873d0f70417cb359672af9d966d9999bcfe3f9ac5bc54ac114f5504b4f67e2",
  "wif": 24,
  "slip44": 1,
  "aip20": 1,
  "client": {
    "token": "dBIN",
    "symbol": "d⟐",
    "explorer": "http://0.0.0.0:4200"
  }
}
